{
  "name": "Cooplocal",
  "fields": [
    {
      "fieldName": "id",
      "fieldType": "String",
      "fieldValidateRules": ["required"]
    },
    {
      "fieldName": "name",
      "fieldType": "String",
      "fieldValidateRules": ["required"]
    }
  ],
  "relationships": [
    {
      "relationshipType": "one-to-many",
      "otherEntityName": "coopnational",
      "otherEntityRelationshipName": "cooplocal",
      "relationshipName": "coopnational"
    },
    {
      "relationshipType": "one-to-many",
      "otherEntityName": "livreur",
      "otherEntityRelationshipName": "cooplocal",
      "relationshipName": "livreur"
    },
    {
      "relationshipType": "many-to-many",
      "otherEntityName": "restaurant",
      "otherEntityRelationshipName": "cooplocal",
      "relationshipName": "restaurant",
      "ownerSide": false
    }
  ],
  "entityTableName": "cooplocal",
  "dto": "mapstruct",
  "pagination": "no",
  "service": "serviceImpl",
  "jpaMetamodelFiltering": true,
  "fluentMethods": true,
  "readOnly": false,
  "embedded": false,
  "applications": "*",
  "changelogDate": "20210411161039"
}
