{
  "name": "Plat",
  "fields": [
    {
      "fieldName": "name",
      "fieldType": "String",
      "fieldValidateRules": ["required"]
    },
    {
      "fieldName": "prix",
      "fieldType": "Integer",
      "fieldValidateRules": ["required"]
    }
  ],
  "relationships": [
    {
      "relationshipType": "one-to-many",
      "otherEntityName": "commande",
      "otherEntityRelationshipName": "plat",
      "relationshipName": "commande"
    },
    {
      "relationshipType": "many-to-one",
      "otherEntityName": "restaurant",
      "otherEntityRelationshipName": "plat",
      "relationshipName": "restaurant"
    }
  ],
  "entityTableName": "plat",
  "dto": "mapstruct",
  "pagination": "no",
  "service": "serviceImpl",
  "jpaMetamodelFiltering": true,
  "fluentMethods": true,
  "readOnly": false,
  "embedded": false,
  "applications": "*",
  "changelogDate": "20210411161037"
}
